<svg width="116" height="307" viewBox="0 0 116 307" fill="none" xmlns="http://www.w3.org/2000/svg">
<mask id="mask0_172_1627" style="mask-type:alpha" maskUnits="userSpaceOnUse" x="0" y="0" width="116" height="307">
<rect width="115.594" height="307" fill="#D9D9D9"/>
</mask>
<g mask="url(#mask0_172_1627)">
<circle cx="-37.9062" cy="153.5" r="153.5" fill="#3AB762"/>
</g>
</svg>
