<svg width="386" height="30" viewBox="0 0 386 30" fill="none" xmlns="http://www.w3.org/2000/svg">
<path d="M2 2.21541C92.1964 2.21541 182.414 1.65704 272.607 2.33826C291.786 2.48312 311.015 2.63616 330.145 3.99678C340.35 4.7226 350.476 6.09808 360.677 6.8531C364.397 7.12846 368.035 7.1286 371.707 7.62093C374.877 8.04598 378.112 8.05102 381.285 8.57304C382.113 8.70919 385.864 9.15739 382.841 9.52515C377.51 10.1739 372.091 10.34 366.728 10.6308C342.285 11.9563 317.896 13.7172 293.492 15.5142C238.688 19.5497 183.579 21.0726 128.866 25.9567C122.88 26.4911 116.933 27.271 110.955 27.8609C110.851 27.8712 104.648 28.0948 104.766 27.9531C106.139 26.2969 111.733 25.678 113.548 25.3117C125.469 22.9071 137.68 21.6347 149.855 20.8276C156.04 20.4176 162.256 20.0713 168.458 19.9369C172.328 19.8531 174.237 19.6577 168.873 19.4762C147.887 18.7661 126.433 18.7085 105.457 19.6605C101.656 19.833 97.8787 20.2356 94.081 20.4283C93.6666 20.4494 92.9369 20.7553 92.8362 20.3976C92.4246 18.935 95.9606 19.2088 97.5734 18.7391C137.465 7.12185 181.563 7.82402 223.022 8.78804C259.249 9.63038 294.575 14.8343 330.421 18.8005C335.703 19.3849 340.874 19.9062 346.189 19.9062" stroke="#BFDB38" stroke-width="4" stroke-linecap="round"/>
</svg>
