<svg width="20" height="20" viewBox="0 0 20 20" fill="none" xmlns="http://www.w3.org/2000/svg">
<path d="M19.323 10.0541C19.323 14.8765 15.7898 18.8736 11.1711 19.5982V12.8469H13.4223L13.8507 10.0541H11.1711V8.24179C11.1711 7.47755 11.5455 6.73294 12.7456 6.73294H13.9639V4.3553C13.9639 4.3553 12.8581 4.1666 11.801 4.1666C9.59432 4.1666 8.15189 5.50411 8.15189 7.92553V10.0541H5.69877V12.8469H8.15189V19.5982C3.53324 18.8736 0 14.8765 0 10.0541C0 4.71836 4.32578 0.392578 9.6615 0.392578C14.9972 0.392578 19.323 4.71836 19.323 10.0541Z" fill="white"/>
</svg>
