<svg width="24" height="25" viewBox="0 0 24 25" fill="none" xmlns="http://www.w3.org/2000/svg">
<mask id="mask0_30_20802" style="mask-type:alpha" maskUnits="userSpaceOnUse" x="0" y="0" width="24" height="25">
<rect y="0.421875" width="24" height="24" fill="#D9D9D9"/>
</mask>
<g mask="url(#mask0_30_20802)">
<path d="M10.5821 17.1415L17.7219 10.002L16.1604 8.4345L10.5821 14.0128L7.80387 11.2345L6.24262 12.802L10.5821 17.1415ZM12.0001 22.6252C10.585 22.6252 9.25713 22.3576 8.01663 21.8223C6.77596 21.2869 5.69679 20.5605 4.77912 19.643C3.86162 18.7253 3.13521 17.6462 2.59987 16.4055C2.06454 15.165 1.79688 13.8372 1.79688 12.422C1.79688 11.0068 2.06454 9.679 2.59987 8.4385C3.13521 7.19783 3.86162 6.11867 4.77912 5.201C5.69679 4.2835 6.77596 3.55708 8.01663 3.02175C9.25713 2.48642 10.585 2.21875 12.0001 2.21875C13.4153 2.21875 14.7431 2.48642 15.9836 3.02175C17.2243 3.55708 18.3035 4.2835 19.2211 5.201C20.1386 6.11867 20.865 7.19783 21.4004 8.4385C21.9357 9.679 22.2034 11.0068 22.2034 12.422C22.2034 13.8372 21.9357 15.165 21.4004 16.4055C20.865 17.6462 20.1386 18.7253 19.2211 19.643C18.3035 20.5605 17.2243 21.2869 15.9836 21.8223C14.7431 22.3576 13.4153 22.6252 12.0001 22.6252ZM12.0001 20.3503C14.2175 20.3503 16.0932 19.5833 17.6274 18.0492C19.1614 16.5151 19.9284 14.6393 19.9284 12.422C19.9284 10.2047 19.1614 8.32892 17.6274 6.79475C16.0932 5.26075 14.2175 4.49375 12.0001 4.49375C9.78279 4.49375 7.90704 5.26075 6.37288 6.79475C4.83888 8.32892 4.07187 10.2047 4.07187 12.422C4.07187 14.6393 4.83888 16.5151 6.37288 18.0492C7.90704 19.5833 9.78279 20.3503 12.0001 20.3503Z" fill="#F79150"/>
</g>
</svg>
