<svg width="647" height="625" viewBox="0 0 647 625" fill="none" xmlns="http://www.w3.org/2000/svg">
<path fill-rule="evenodd" clip-rule="evenodd" d="M521.781 606.111C535.549 603.469 537.69 601.328 540.332 587.561C542.974 601.328 545.116 603.469 558.883 606.111C545.116 608.753 542.974 610.895 540.332 624.662C537.69 610.895 535.549 608.753 521.781 606.111Z" stroke="#FFC303"/>
<path fill-rule="evenodd" clip-rule="evenodd" d="M251.25 21.7613C251.25 9.80874 260.94 0.119027 272.893 0.119028C284.845 0.119029 294.535 9.80874 294.535 21.7613C294.535 33.7143 284.845 43.4041 272.893 43.4041C260.94 43.404 251.25 33.7143 251.25 21.7613Z" fill="#FC7300"/>
<path fill-rule="evenodd" clip-rule="evenodd" d="M0.81454 602.488C0.814541 594.804 7.04365 588.575 14.7278 588.575C22.4115 588.575 28.6406 594.804 28.6406 602.488C28.6406 610.172 22.4115 616.401 14.7278 616.401C7.04365 616.401 0.81454 610.172 0.81454 602.488Z" stroke="#0FB4BB"/>
<path d="M551.155 95.9644L580.527 95.9644L580.527 66.5924L551.155 66.5924L551.155 95.9644Z" fill="#BFDB38"/>
<mask id="mask0_217_456" style="mask-type:alpha" maskUnits="userSpaceOnUse" x="547" y="282" width="100" height="311">
<rect x="647" y="593" width="100" height="311" transform="rotate(-180 647 593)" fill="#D9D9D9"/>
</mask>
<g mask="url(#mask0_217_456)">
<circle cx="702.5" cy="437.5" r="155.5" transform="rotate(-180 702.5 437.5)" fill="#BFDB38"/>
</g>
</svg>
