<svg width="40" height="34" viewBox="0 0 40 34" fill="none" xmlns="http://www.w3.org/2000/svg">
<path d="M2 2.25H38" stroke="black" stroke-width="3" stroke-linecap="round"/>
<path d="M2 17.25H38" stroke="black" stroke-width="3" stroke-linecap="round"/>
<path d="M13.4541 32.25L37.9996 32.25" stroke="black" stroke-width="3" stroke-linecap="round"/>
</svg>
