<svg width="1098" height="289" viewBox="0 0 1098 289" fill="none" xmlns="http://www.w3.org/2000/svg">
<path d="M0 289V0H1098L0 289Z" fill="url(#paint0_linear_172_1658)"/>
<defs>
<linearGradient id="paint0_linear_172_1658" x1="0" y1="0" x2="64.6273" y2="252.139" gradientUnits="userSpaceOnUse">
<stop stop-color="#379956"/>
<stop offset="0.984375" stop-color="#379956" stop-opacity="0"/>
</linearGradient>
</defs>
</svg>
