<svg width="72" height="72" viewBox="0 0 72 72" fill="none" xmlns="http://www.w3.org/2000/svg">
<path d="M62.3189 14.8962V66.0433C62.3189 68.6341 60.2187 70.7344 57.6278 70.7344H23.3083C20.7176 70.7344 18.6172 68.6342 18.6172 66.0433V14.8962C18.6172 12.3055 20.7174 10.2051 23.3083 10.2051H57.6278C60.2187 10.2052 62.3189 12.3055 62.3189 14.8962Z" fill="#3AB762"/>
<path d="M53.3775 5.95283V57.1C53.3775 59.6907 51.2773 61.7911 48.6864 61.7911H14.3669C11.7762 61.7911 9.67578 59.6908 9.67578 57.1V5.95283C9.67578 3.36209 11.776 1.26172 14.3669 1.26172H48.6864C51.2773 1.26172 53.3775 3.36195 53.3775 5.95283Z" fill="#FEFDFE"/>
<path opacity="0.12" d="M53.3806 5.94942V7.5742H20.6721C18.0836 7.5742 15.9883 9.66966 15.9883 12.258V61.7857H14.3635C11.775 61.7857 9.67969 59.6903 9.67969 57.1019V5.94942C9.67969 3.36094 11.7751 1.26563 14.3635 1.26563H48.6855C51.2739 1.26548 53.3806 3.36094 53.3806 5.94942Z" fill="#1AB64B"/>
<path d="M63.4429 66.0448V14.8919C63.4429 11.7853 61.0136 9.24107 57.9135 9.09988C57.3203 9.0605 56.7711 9.5496 56.7427 10.1679C56.7142 10.7863 57.1924 11.3104 57.8107 11.3388C59.7125 11.4253 61.2019 12.9856 61.2019 14.8919V66.0448C61.2019 68.0156 59.5976 69.6187 57.6269 69.6187H23.305C21.3988 69.6187 19.8383 68.125 19.7518 66.2188C19.7234 65.5995 19.1707 65.1081 18.5821 65.1496C17.9638 65.178 17.4845 65.7012 17.5129 66.3194C17.6541 69.4262 20.1983 71.8598 23.305 71.8598H57.6269C60.8341 71.8598 63.4429 69.2511 63.4429 66.0448Z" fill="#1AB64B"/>
<path d="M14.3663 62.9104H48.686C51.89 62.9104 54.4966 60.3038 54.4966 57.0998V5.95237C54.4967 2.74823 51.8901 0.140625 48.6861 0.140625H14.3663C11.1612 0.140625 8.55469 2.74823 8.55469 5.95237V57.0998C8.55469 60.3038 11.1612 62.9104 14.3663 62.9104ZM10.7957 5.95237C10.7957 3.98377 12.3977 2.38177 14.3663 2.38177H48.686C50.6546 2.38177 52.2555 3.98377 52.2555 5.95237V57.0998C52.2555 59.0684 50.6546 60.6693 48.686 60.6693H14.3663C12.3977 60.6693 10.7957 59.0684 10.7957 57.0998V5.95237Z" fill="#1AB64B"/>
<path d="M19.4838 15.6043H43.5665C44.1858 15.6043 44.687 15.1031 44.687 14.4838C44.687 13.8645 44.1858 13.3633 43.5665 13.3633H19.4838C18.8645 13.3633 18.3633 13.8645 18.3633 14.4838C18.3633 15.1031 18.8645 15.6043 19.4838 15.6043Z" fill="#1AB64B"/>
<path d="M19.4838 24.1258H43.5665C44.1858 24.1258 44.687 23.6246 44.687 23.0053C44.687 22.386 44.1858 21.8848 43.5665 21.8848H19.4838C18.8645 21.8848 18.3633 22.386 18.3633 23.0053C18.3633 23.6246 18.8645 24.1258 19.4838 24.1258Z" fill="#1AB64B"/>
<path d="M19.4838 32.6453H43.5665C44.1858 32.6453 44.687 32.1441 44.687 31.5248C44.687 30.9055 44.1858 30.4043 43.5665 30.4043H19.4838C18.8645 30.4043 18.3633 30.9055 18.3633 31.5248C18.3633 32.1441 18.8645 32.6453 19.4838 32.6453Z" fill="#1AB64B"/>
<path d="M19.4838 41.1668H43.5665C44.1858 41.1668 44.687 40.6656 44.687 40.0463C44.687 39.427 44.1858 38.9258 43.5665 38.9258H19.4838C18.8645 38.9258 18.3633 39.427 18.3633 40.0463C18.3633 40.6656 18.8645 41.1668 19.4838 41.1668Z" fill="#1AB64B"/>
<path d="M19.4836 49.6863H32.6938C33.3131 49.6863 33.8143 49.1851 33.8143 48.5658C33.8143 47.9465 33.3131 47.4453 32.6938 47.4453H19.4838C18.8645 47.4453 18.3633 47.9465 18.3633 48.5658C18.3633 49.1851 18.8643 49.6863 19.4836 49.6863Z" fill="#1AB64B"/>
</svg>
